 --> PUT https://api2.homebank.kz/hbapi/api/v1/payments

 {"inputParameters":{"amount":100.00,"cardId":151288582,"cardMask":"•••• 4833","contract":"833ADC01","currency":"KZT","invoiceDetails":[{"class":"","calculation":"","id":"1","name":"RPS309346","params":[{"editable":false,"paramCode":"Amount","paramId":"FixSum","paramName":"Сумма к оплате","paramValue":"100.00","visable":true}]}],"invoiceId":"833ADC01","isSaveCard":false,"paymentType":"cardId"},"paymentId":1180131957,"serviceName":"almatyParkingMinute"}
   

<-- 400 https://api2.homebank.kz/hbapi/api/v1/payments

 {
      "resultCode": -269,
      "resultDescription": "Недостаточно средств на карте. Пополните карту или укажите меньшую сумму  ",
      "data": null
    }