--> POST https://api2.homebank.kz/hbapi/api/v1/payments h2

    {"inputParameters":{"contract":"728392341"},"paymentId":0,"serviceName":"faberlic"}



  <-- 200 https://api2.homebank.kz/hbapi/api/v1/payments (1499ms)
{
      "paymentId": 1181204272,
      "serviceName": "faberlic",
      "authorizationType": null,
      "inputParameters": {
        "contract": "728392341",
        "token": "S-MW5988NTGTZX92EGCIAA"
      },
      "outputParameters": {
        "clientName": "Сейтқанова Жансая Аманғалиқызы"
      }
    }