{
  "id": "gkpKTEK",
  "options": {
    "subTitle": {
      "ru-RU": "Оплата услуг сервиса",
      "kz-KZ": "Сервис қызметтеріне ақы төлеу",
      "en-US": "Pyament for the services provided"
    },
    "webStyles": [
      {
        "key": "background-image",
        "value": "linear-gradient(103deg,#22C3B1,#6BB0E2)"
      }
    ],
    "startingPageId": "initialPage"
  },
  "pages": [
    {
      "id": "initialPage",
      "type": "normal",
      "options": {},
      "containers": [
        {
          "id": "0",
          "type": "flat",
          "options": {
            "webAlignment": "Vertical",
            "mobileDefaultConstraints": {
              "left": 0,
              "right": 0,
              "top": 0,
              "bottom": 0
            }
          },
          "blocks": [
            {
              "id": "0-0",
              "type": "roundedContainer",
              "options": {
                "webAlignment": "Vertical",
                "mobileDefaultConstraints": {
                  "left": 16,
                  "right": 16,
                  "top": 16,
                  "bottom": 0
                }
              },
              "elements": [
                {
                  "id": "0-0-0",
                  "parameterId": "contract",
                  "type": "inputField",
                  "options": {
                    "mobileDefaultConstraints": {
                      "left": 16,
                      "right": 16,
                      "top": 0,
                      "bottom": 0
                    },
                    "description": {
                      "ru-RU": "Номер лицевого счета",
                      "kz-KZ": "Шот нөмірі",
                      "en-US": "Account number"
                    },
                    "webPlaceholder": {
                      "ru-RU": "0000123",
                      "kz-KZ": "0000123",
                      "en-US": "0000123"
                    },
                    "formatting": "number",
                    "keyboard": "number",
                    "onResignPreCheck": {
                      "parameterId": "contract",
                      "checkCondition": {
                        "regex": "^[0-9]{3,}$"
                      },
                      "errorActions": [
                        {
                          "id": "rpc-0.0",
                          "type": "highlightElem",
                          "options": {
                            "targetElem": "0-0-0",
                            "highlightParent": true,
                            "text": {
                              "ru-RU": "Введите корректный номер счета",
                              "kz-KZ": "Шоттың нөмірін енгізіңіз",
                              "en-US": "Please enter an account number"
                            }
                          }
                        }
                      ]
                    }
                  }
                }
              ]
            },
            {
              "id": "0-1",
              "type": "flat",
              "options": {
                "webAlignment": "Vertical",
                "mobileDefaultConstraints": {
                  "left": 16,
                  "right": 16,
                  "top": 8,
                  "bottom": 0
                }
              },
              "elements": [
                {
                  "id": "0-1-0",
                  "type": "label",
                  "options": {
                    "webTextAlignment": "left",
                    "mobileTextAlignment": "left",
                    "mobileDefaultConstraints": {
                      "left": 0,
                      "right": 0,
                      "top": 0,
                      "bottom": 0
                    },
                    "description": {
                      "ru-RU": "Указан на бумажной квитанции",
                      "kz-KZ": "Қағаз түбіртегінде көрсетілген",
                      "en-US": "Indicated on paper receipt"
                    },
                    "icon": "template_label_info",
                    "fontSize": 13
                  }
                }
              ]
            },
            {
              "id": "0-2",
              "type": "flat",
              "options": {
                "webAlignment": "Vertical",
                "mobileDefaultConstraints": {
                  "left": 0,
                  "right": 0,
                  "top": 16,
                  "bottom": 80
                }
              },
              "elements": [
                {
                  "id": "0-2-0",
                  "type": "submit",
                  "parameterId": "continue",
                  "actionId": "checkContract",
                  "options": {
                    "webTextAligment": "center",
                    "mobileDefaultConstraints": {
                      "left": 16,
                      "right": 16,
                      "top": 16,
                      "bottom": 0
                    },
                    "description": {
                      "ru-RU": "Проверить",
                      "kz-KZ": "Тексеру",
                      "en-US": "Check"
                    }
                  }
                }
              ]
            }
          ]
        }
      ]
    },
    {
      "id": "secondPage",
      "type": "normal",
      "options": {},
      "containers": [
        {
          "id": "1",
          "type": "flat",
          "options": {
            "mobileDefaultConstraints": {
              "left": 0,
              "right": 0,
              "top": 0,
              "bottom": 0
            }
          },
          "blocks": [
            {
              "id": "1-0",
              "type": "flat",
              "options": {
                "webAlignment": "Vertical",
                "mobileDefaultConstraints": {
                  "left": 0,
                  "right": 0,
                  "top": 16,
                  "bottom": 0
                },
                "mobileBackgroundColor": "FFFFFF"
              },
              "elements": [
                {
                  "id": "1-0-0",
                  "type": "flatList",
                  "options": {
                    "showUnderline": false,
                    "mobileDefaultConstraints": {
                      "left": 16,
                      "right": 16,
                      "top": 8,
                      "bottom": 0
                    },
                    "description": {
                      "ru-RU": "Информация",
                      "kz-KZ": "Ақпарат",
                      "en-US": "Information"
                    },
                    "listData": [
                      {
                        "id": "1-0-0-0",
                        "label": {
                          "ru-RU": "Номер лицевого счета",
                          "kz-KZ": "Шот нөмірі",
                          "en-US": "Account number"
                        },
                        "value": "{0}",
                        "dependencies": [
                          "contract"
                        ],
                        "webHidden": false,
                        "webDuplicateTo": [
                          "header",
                          "right"
                        ]
                      },
                      {
                        "id": "1-0-0-1",
                        "label": {
                          "ru-RU": "ФИО",
                          "kz-KZ": "Аты-жөні",
                          "en-US": "Account holder name"
                        },
                        "value": "{0}",
                        "dependencies": [
                          "clientName"
                        ],
                        "webHidden": true,
                        "webDuplicateTo": [
                          "header",
                          "right"
                        ]
                      },
                      {
                        "id": "1-0-0-2",
                        "label": {
                          "ru-RU": "Адрес",
                          "kz-KZ": "Мекен-жайы",
                          "en-US": "Account address"
                        },
                        "value": "{0}",
                        "dependencies": [
                          "clientAddress"
                        ],
                        "webHidden": true,
                        "webDuplicateTo": [
                          "header",
                          "right"
                        ]
                      }
                    ]
                  }
                }
              ]
            },
            {
              "id": "1-1",
              "type": "flat",
              "options": {
                "webAlignment": "Vertical",
                "mobileDefaultConstraints": {
                  "left": 0,
                  "right": 0,
                  "top": 16,
                  "bottom": 120
                }
              },
              "elements": [
                {
                  "id": "1-1-0",
                  "type": "invoiceList",
                  "parameterId": "invoices",
                  "options": {
                    "setInvoiceId": "invoiceId",
                    "setInvoiceItems": "invoiceItems",
                    "setAmountParam": "amount",
                    "mobileDefaultConstraints": {
                      "left": 16,
                      "right": 16,
                      "top": 0,
                      "bottom": 0
                    },
                    "description": {
                      "ru-RU": "К оплате",
                      "kz-KZ": "Төленетін сома",
                      "en-US": "Amount to pay"
                    },
                    "iconMatching": {
                      "defaultIcon": "Other",
                      "stringMatching": [
                        {
                          "containsString": [
                            "элект",
                            "энер"
                          ],
                          "icon": "Electricity"
                        },
                        {
                          "containsString": [
                            "транспорт",
                            "машина",
                            "авто"
                          ],
                          "icon": "Transport"
                        },
                        {
                          "containsString": [
                            "телев",
                            "тв",
                            "tv"
                          ],
                          "icon": "TV"
                        },
                        {
                          "containsString": [
                            "телеф",
                            "связь",
                            "связи"
                          ],
                          "icon": "Phone"
                        },
                        {
                          "containsString": [
                            "вода",
                            "воды",
                            "водо",
                            "хол",
                            "суық",
                            "ыстық",
                            "жарсу",
                            "хвс"
                          ],
                          "icon": "Water"
                        },
                        {
                          "containsString": [
                            "газ",
                            "gas",
                            "ғас",
                            "вдго",
                            "вкго"
                          ],
                          "icon": "Gas"
                        },
                        {
                          "containsString": [
                            "тбо",
                            "мусор",
                            "вывоз",
                            "қтқ"
                          ],
                          "icon": "Trash"
                        },
                        {
                          "containsString": [
                            "megaline",
                            "idnet",
                            "интернет"
                          ],
                          "icon": "Internet"
                        },
                        {
                          "containsString": [
                            "кузет",
                            "охрана",
                            "охранник"
                          ],
                          "icon": "Shield"
                        },
                        {
                          "containsString": [
                            "налог",
                            "документ",
                            "бумаг",
                            "кск",
                            "квитанции"
                          ],
                          "icon": "Taxes"
                        },
                        {
                          "containsString": [
                            "ПККСП",
                            "здоро"
                          ],
                          "icon": "Heart"
                        }
                      ]
                    }
                  }
                }
              ]
            },
            {
              "id": "1-2",
              "type": "flat",
              "options": {
                "webAlignment": "Vertical",
                "mobileDefaultConstraints": {
                  "left": 0,
                  "right": 0,
                  "top": 8,
                  "bottom": 0
                }
              },
              "elements": [
                {
                  "id": "1-2-0",
                  "parameterId": "commission",
                  "actionId": "commissionAlert",
                  "type": "commission",
                  "options": {
                    "calculateFromParamId": "amount",
                    "webTextAligment": "left",
                    "mobileTextAlignment": "center",
                    "isHidden": true,
                    "mobileDefaultConstraints": {
                      "left": 0,
                      "right": 0,
                      "top": 8,
                      "bottom": 0
                    },
                    "description": {
                      "ru-RU": "Комиссия: {0} ₸",
                      "kz-KZ": "Комиссия: {0} ₸",
                      "en-US": "Commission: {0} ₸"
                    },
                    "highLightedText": [
                      {
                        "ru-RU": "{0} ₸",
                        "kz-KZ": "{0} ₸",
                        "en-US": "{0} ₸"
                      }
                    ],
                    "dependencies": [
                      "commission"
                    ]
                  }
                }
              ]
            },
            {
              "id": "1-3",
              "type": "flat",
              "options": {
                "webAlignment": "Vertical",
                "mobileDefaultConstraints": {
                  "left": 0,
                  "right": 0,
                  "top": 16,
                  "bottom": 50
                }
              },
              "elements": [
                {
                  "id": "1-3-0",
                  "type": "submit",
                  "actionId": "showThirdPage",
                  "parameterId": "overallAmount",
                  "options": {
                    "webTextAligment": "center",
                    "mobileDefaultConstraints": {
                      "left": 16,
                      "right": 8,
                      "top": 8,
                      "bottom": 0
                    },
                    "description": {
                      "ru-RU": "Итого: {0} ₸",
                      "kz-KZ": "Төлеу үшін: {0} ₸",
                      "en-US": "Overall: {0} ₸"
                    },
                    "additionalDescription": {
                      "ru-RU": "К оплате",
                      "kz-KZ": "Төлемге өту",
                      "en-US": "Proceed to checkout"
                    },
                    "dependencies": [
                      "overallAmount"
                    ],
                    "sumFromParams": [
                      "amount",
                      "commission"
                    ],
                    "detailedSubmit": true,
                    "commission": "commission"
                  }
                }
              ]
            }
          ]
        }
      ]
    },
    {
      "id": "thirdPage",
      "type": "normal",
      "options": {},
      "containers": [
        {
          "id": "2",
          "type": "flat",
          "options": {
            "mobileDefaultConstraints": {
              "left": 0,
              "right": 0,
              "top": 0,
              "bottom": 0
            }
          },
          "blocks": [
            {
              "id": "2-0",
              "type": "flat",
              "options": {
                "webAlignment": "Vertical",
                "mobileDefaultConstraints": {
                  "left": 0,
                  "right": 0,
                  "top": 16,
                  "bottom": 0
                },
                "mobileBackgroundColor": "FFFFFF"
              },
              "elements": [
                {
                  "id": "2-0-0",
                  "parameterId": "invoiceItems",
                  "type": "invoiceDescription",
                  "options": {
                    "commission": "commission",
                    "amount": "amount",
                    "invoiceId": "invoiceId",
                    "contract": "contract",
                    "mobileDefaultConstraints": {
                      "left": 16,
                      "right": 16,
                      "top": 16,
                      "bottom": 4
                    },
                    "commissionText": {
                      "ru-RU": "Комиссия",
                      "kz-KZ": "Комиссия",
                      "en-US": "Commission"
                    },
                    "amountText": {
                      "ru-RU": "Сумма к оплате",
                      "kz-KZ": "Төленетін сома",
                      "en-US": "Amount to pay"
                    }
                  }
                }
              ]
            },
            {
              "id": "2-1",
              "type": "roundedContainer",
              "options": {
                "webAlignment": "Vertical",
                "mobileDefaultConstraints": {
                  "left": 16,
                  "right": 16,
                  "top": 16,
                  "bottom": 0
                }
              },
              "elements": [
                {
                  "id": "2-1-0",
                  "parameterId": "card",
                  "type": "paymentSelector",
                  "options": {
                    
                    "mobileDefaultConstraints": {
                      "left": 16,
                      "right": 16,
                      "top": 2,
                      "bottom": 2
                    },
                    "label": {
                      "ru-RU": "Выберите способ оплаты",
                      "kz-KZ": "Төлем әдісін таңдаңыз",
                      "en-US": "Choose a payment method"
                    }
                  }
                }
              ]
            },
            {
              "id": "2-2",
              "type": "flat",
              "options": {
                "webAlignment": "Vertical",
                "mobileDefaultConstraints": {
                  "left": 0,
                  "right": 0,
                  "top": 16,
                  "bottom": 80
                }
              },
              "elements": [
                {
                  "id": "2-2-0",
                  "type": "submit",
                  "actionId": "showExecPage",
                  "parameterId": "overallAmount",
                  "options": {
                    "webTextAligment": "center",
                    "mobileDefaultConstraints": {
                      "left": 16,
                      "right": 16,
                      "top": 16,
                      "bottom": 0
                    },
                    "description": {
                      "ru-RU": "Оплатить {0} ₸",
                      "kz-KZ": "Төлеу үшін {0} ₸",
                      "en-US": "Pay {0} ₸"
                    },
                    "dependencies": [
                      "overallAmount"
                    ],
                    "sumFromParams": [
                      "amount",
                      "commission"
                    ]
                  }
                }
              ]
            }
          ]
        }
      ]
    },
    {
      "id": "execPage",
      "type": "execPage",
      "options": {
        "actionId": "exec",
        "displayInfo": {
          "card": "card",
          "commission": "commission",
          "amount": "amount"
        }
      },
      "containers": []
    },
    {
      "id": "noInvoicePage",
      "type": "noInvoicePage",
      "options": {
        "displayInfo": {
          "contract": "contract"
        }
      }
    }
  ],
  "parameters": [
    {
      "id": "contract",
      "dataType": "string"
    },
    {
      "id": "continue",
      "dataType": "double"
    },
    {
      "id": "invoiceId",
      "dataType": "string"
    },
    {
      "id": "clientName",
      "dataType": "string"
    },
    {
      "id": "clientAddress",
      "dataType": "string"
    },
    {
      "id": "amount",
      "dataType": "double"
    },
    {
      "id": "invoices",
      "dataType": "array"
    },
    {
      "id": "invoiceItems",
      "dataType": "array"
    },
    {
      "id": "card",
      "dataType": "cardData"
    },
    {
      "id": "overallAmount",
      "dataType": "double"
    },
    {
      "id": "commission",
      "dataType": "double"
    },
    {
      "id": "errorDesc",
      "dataType": "string"
    }
  ],
  "actions": [
    {
      "id": "hideAllErrors",
      "type": "hideAllErrors",
      "options": {}
    },
    {
      "id": "commissionAlert",
      "type": "alert",
      "options": {
        "text": {
          "ru-RU": "Комиссия Homebank 0 ₸ \nКомиссия агрегатора {0} ₸",
          "kz-KZ": "Homebank комиссиясы 0 ₸ \nАгрегатордың комиссиясы {0} ₸",
          "en-US": "Homebank Commission 0 ₸ \nAggregator commission {0} ₸"
        },
        "title": {
          "ru-RU": "Комиссия",
          "kz-KZ": "Комиссия",
          "en-US": "Commission"
        },
        "dependencies": [
          "commission"
        ]
      }
    },
    {
      "id": "checkContract",
      "type": "checkRequest",
      "options": {
        "parameters": [
          {
            "id": "contract",
            "valueFromParam": "contract"
          }
        ],
        "preChecks": [
          {
            "parameterId": "contract",
            "checkCondition": {
              "regex": "^[0-9]{3,}$"
            },
            "errorActions": [
              {
                "id": "pc-0.0",
                "type": "setParam",
                "options": {
                  "dataType": "double",
                  "value": null,
                  "parameterId": "continue"
                }
              },
              {
                "id": "pc-0.1",
                "type": "highlightElem",
                "options": {
                  "targetElem": "0-0-0",
                  "highlightParent": true,
                  "text": {
                    "ru-RU": "Введите корректный номер аккаунта",
                    "kz-KZ": "Шот нөмірін дұрыс енгізіңіз",
                    "en-US": "Please enter a correct account"
                  }
                }
              },
              {
                "id": "pc-0.2",
                "type": "becomeFirstResponder",
                "options": {
                  "targetElem": "0-0-0"
                }
              },
              {
                "id": "pc-0.3",
                "type": "taptic",
                "options": {
                  "tapType": "warning"
                }
              }
            ]
          }
        ],
        "errorResponseActions": [
          {
            "code": "-253",
            "responseActions": [
              {
                "id": "era-0.1",
                "type": "setParam",
                "options": {
                  "dataType": "double",
                  "value": null,
                  "parameterId": "continue"
                }
              },
              {
                "id": "era-0.2",
                "type": "highlightElem",
                "options": {
                  "targetElem": "0-0-0",
                  "highlightParent": true,
                  "text": {
                    "ru-RU": "Данный абонент не найден",
                    "kz-KZ": "Бұл шот табылмады",
                    "en-US": "This account was not found"
                  }
                }
              },
              {
                "id": "era-0.3",
                "type": "becomeFirstResponder",
                "options": {
                  "targetElem": "0-0-0"
                }
              },
              {
                "id": "era-0.4",
                "type": "taptic",
                "options": {
                  "tapType": "warning"
                }
              }
            ]
          },
          {
            "code": "other",
            "responseActions": [
              {
                "id": "era-1.0",
                "type": "setParam",
                "options": {
                  "dataType": "double",
                  "value": null,
                  "parameterId": "continue"
                }
              },
              {
                "id": "era-1.1",
                "type": "setParam",
                "options": {
                  "dataType": "string",
                  "valueFrom": [
                    {
                      "id": "resultDescription",
                      "dataType": "string"
                    }
                  ],
                  "parameterId": "errorDesc"
                }
              },
              {
                "id": "era-1.2",
                "type": "alert",
                "options": {
                  "text": {
                    "ru-RU": "{0}",
                    "kz-KZ": "{0}",
                    "en-US": "{0}"
                  },
                  "title": {
                    "ru-RU": "Ошибка",
                    "kz-KZ": "Қате",
                    "en-US": "Error"
                  },
                  "dependencies": [
                    "errorDesc"
                  ]
                }
              },
              {
                "id": "era-1.3",
                "type": "taptic",
                "options": {
                  "tapType": "warning"
                }
              }
            ]
          }
        ],
        "successResponseActions": [
          {
            "id": "sra-0.0",
            "type": "setParam",
            "options": {
              "dataType": "double",
              "value": null,
              "parameterId": "continue"
            }
          },
          {
            "id": "sra-0.1",
            "type": "setParam",
            "options": {
              "dataType": "string",
              "valueFrom": [
                {
                  "id": "invoices",
                  "dataType": "array"
                },
                {
                  "id": "0",
                  "dataType": "dict"
                },
                {
                  "id": "id",
                  "dataType": "string"
                }
              ],
              "parameterId": "invoiceId"
            }
          },
          {
            "id": "sra-0.2",
            "type": "setParam",
            "options": {
              "dataType": "string",
              "valueFrom": [
                {
                  "id": "invoices",
                  "dataType": "array"
                },
                {
                  "id": "0",
                  "dataType": "dict"
                },
                {
                  "id": "headerParams",
                  "dataType": "array"
                },
                {
                  "id": "4",
                  "dataType": "dict"
                },
                {
                  "id": "paramValue",
                  "dataType": "string"
                }
              ],
              "parameterId": "clientAddress"
            }
          },
          {
            "id": "sra-0.21",
            "type": "setParam",
            "options": {
              "dataType": "string",
              "valueFrom": [
                {
                  "id": "invoices",
                  "dataType": "array"
                },
                {
                  "id": "0",
                  "dataType": "dict"
                },
                {
                  "id": "headerParams",
                  "dataType": "array"
                },
                {
                  "id": "3",
                  "dataType": "dict"
                },
                {
                  "id": "paramValue",
                  "dataType": "string"
                }
              ],
              "parameterId": "clientName"
            }
          },
          {
            "id": "sra-0.3",
            "type": "setParam",
            "options": {
              "dataType": "array",
              "valueFrom": [
                {
                  "id": "invoices",
                  "dataType": "array"
                }
              ],
              "parameterId": "invoices"
            }
          },
          {
            "id": "sra-0.31",
            "type": "setParam",
            "options": {
              "dataType": "array",
              "valueFrom": [
                {
                  "id": "invoices",
                  "dataType": "array"
                },
                {
                  "id": "0",
                  "dataType": "dict"
                },
                {
                  "id": "items",
                  "dataType": "array"
                }
              ],
              "parameterId": "invoiceItems"
            }
          },
          {
            "id": "sra-0.4",
            "type": "showPage",
            "options": {
              "pageId": "secondPage",
              "checkInvoice": {
                "parameterId": "invoiceItems",
                "fallbackPageId": "noInvoicePage"
              }
            }
          }
        ]
      }
    },
    {
      "id": "showThirdPage",
      "type": "showPage",
      "options": {
        "pageId": "thirdPage",
        "preChecks": [
          {
            "parameterId": "amount",
            "checkCondition": {
              "range": {
                "min": "1",
                "max": "1000000000000",
                "dataType": "double"
              }
            },
            "errorActions": [
              {
                "id": "pc-1.0",
                "type": "setParam",
                "options": {
                  "dataType": "double",
                  "value": null,
                  "parameterId": "overallAmount"
                }
              },
              {
                "id": "pc-1.1",
                "type": "alert",
                "options": {
                  "text": {
                    "ru-RU": "Сумма оплаты должна превышать 1 ₸",
                    "kz-KZ": "Төлем мөлшері 1 ₸ асу керек.",
                    "en-US": "Payment amount must be above 1 ₸"
                  },
                  "title": {
                    "ru-RU": "Ошибка",
                    "kz-KZ": "Қате",
                    "en-US": "Error"
                  }
                }
              },
              {
                "id": "pc-1.2",
                "type": "taptic",
                "options": {
                  "tapType": "warning"
                }
              }
            ]
          }
        ]
      }
    },
    {
      "id": "showExecPage",
      "type": "checkRequest",
      "options": {
        "parameters": [
          {
            "id": "contract",
            "valueFromParam": "contract"
          }
        ],
        "preChecks": [
          {
            "parameterId": "amount",
            "checkCondition": {
              "range": {
                "min": "1",
                "max": "1000000000000",
                "dataType": "double"
              }
            },
            "errorActions": [
              {
                "id": "pc-1.0",
                "type": "setParam",
                "options": {
                  "dataType": "double",
                  "value": null,
                  "parameterId": "overallAmount"
                }
              },
              {
                "id": "pc-1.1",
                "type": "alert",
                "options": {
                  "text": {
                    "ru-RU": "Сумма оплаты должна превышать 1 ₸",
                    "kz-KZ": "Төлем мөлшері 1 ₸ асу керек.",
                    "en-US": "Payment amount must be above 1 ₸"
                  },
                  "title": {
                    "ru-RU": "Ошибка",
                    "kz-KZ": "Қате",
                    "en-US": "Error"
                  }
                }
              },
              {
                "id": "pc-1.3",
                "type": "taptic",
                "options": {
                  "tapType": "warning"
                }
              }
            ]
          },
          {
            "parameterId": "card",
            "errorActions": [
              {
                "id": "pc-2.0",
                "type": "setParam",
                "options": {
                  "dataType": "double",
                  "value": null,
                  "parameterId": "overallAmount"
                }
              },
              {
                "id": "pc-2.1",
                "type": "highlightElem",
                "options": {
                  "targetElem": "2-1-0",
                  "highlightParent": true
                }
              },
              {
                "id": "pc-2.2",
                "type": "becomeFirstResponder",
                "options": {
                  "targetElem": "2-1-0"
                }
              },
              {
                "id": "pc-2.3",
                "type": "taptic",
                "options": {
                  "tapType": "warning"
                }
              }
            ]
          }
        ],
        "errorResponseActions": [
          {
            "code": "other",
            "responseActions": [
              {
                "id": "era-2.0",
                "type": "setParam",
                "options": {
                  "dataType": "double",
                  "value": null,
                  "parameterId": "overallAmount"
                }
              },
              {
                "id": "era-2.1",
                "type": "setParam",
                "options": {
                  "dataType": "string",
                  "valueFrom": [
                    {
                      "id": "resultDescription",
                      "dataType": "string"
                    }
                  ],
                  "parameterId": "errorDesc"
                }
              },
              {
                "id": "era-2.2",
                "type": "alert",
                "options": {
                  "text": {
                    "ru-RU": "{0}",
                    "kz-KZ": "{0}",
                    "en-US": "{0}"
                  },
                  "title": {
                    "ru-RU": "Ошибка",
                    "kz-KZ": "Қате",
                    "en-US": "Error"
                  },
                  "dependencies": [
                    "errorDesc"
                  ]
                }
              },
              {
                "id": "era-2.3",
                "type": "taptic",
                "options": {
                  "tapType": "warning"
                }
              }
            ]
          }
        ],
        "successResponseActions": [
          {
            "id": "sra-1.0",
            "type": "showPage",
            "options": {
              "pageId": "execPage"
            }
          }
        ]
      }
    },
    {
      "id": "exec",
      "type": "execRequest",
      "options": {
        "chosenCardParam": "card",
        "parameters": [
          {
            "id": "invoiceDetails",
            "valueFromParam": "invoiceItems"
          },
          {
            "id": "invoiceId",
            "valueFromParam": "invoiceId"
          },
          {
            "id": "amount",
            "valueFromParam": "amount"
          }
        ],
        "errorResponseActions": [
          {
            "code": "other",
            "responseActions": [
              {
                "id": "era-3.0",
                "type": "setParam",
                "options": {
                  "dataType": "double",
                  "value": null,
                  "parameterId": "overallAmount"
                }
              },
              {
                "id": "era-3.1",
                "type": "setParam",
                "options": {
                  "dataType": "string",
                  "valueFrom": [
                    {
                      "id": "resultDescription",
                      "dataType": "string"
                    }
                  ],
                  "parameterId": "errorDesc"
                }
              },
              {
                "id": "era-3.2",
                "type": "alert",
                "options": {
                  "text": {
                    "ru-RU": "{0}",
                    "kz-KZ": "{0}",
                    "en-US": "{0}"
                  },
                  "title": {
                    "ru-RU": "Ошибка",
                    "kz-KZ": "Қате",
                    "en-US": "Error"
                  },
                  "dependencies": [
                    "errorDesc"
                  ]
                }
              },
              {
                "id": "era-3.4",
                "type": "taptic",
                "options": {
                  "tapType": "warning"
                }
              }
            ]
          }
        ],
        "successResponseActions": [
          {
            "id": "sra-2.0",
            "type": "setParam",
            "options": {
              "dataType": "double",
              "value": null,
              "parameterId": "overallAmount"
            }
          },
          {
            "id": "sra-2.1",
            "type": "finishTemplate",
            "options": {
              "title": {
                "ru-RU": "Спасибо",
                "kz-KZ": "Рахмет",
                "en-US": "Thanks"
              },
              "text": {
                "ru-RU": "Ваш платеж успешно отправлен в обработку!",
                "kz-KZ": "Сіздің төлеміңіз сәтті өңдеуге жіберілді!",
                "en-US": "Your payment has been successfully sent for processing!"
              }
            }
          }
        ]
      }
    }
  ]
}