{
  "id": "shymbulakMountain",
  "options": {
    "subTitle": {
      "ru-RU": "Оплата услуг сервиса",
      "kz-KZ": "Сервис қызметтеріне ақы төлеу",
      "en-US": "Payment for the services provided"
    },
    "webStyles": [
      {
        "key": "background-image",
        "value": "linear-gradient(103deg,#10a9ff,#005a8b)"
      }
    ],
    "startingPageId": "initialPage",
    "hasQRDetails": true
  },
  "pages": [
    {
      "id": "initialPage",
      "type": "normal",
      "options": {},
      "containers": [
        {
          "id": "0",
          "type": "flat",
          "options": {
            "webAlignment": "Vertical",
            "mobileDefaultConstraints": {
              "left": 0,
              "right": 0,
              "top": 0,
              "bottom": 0
            }
          },
          "blocks": [
            {
              "id": "0-0",
              "type": "roundedContainer",
              "options": {
                "webAlignment": "Vertical",
                "mobileDefaultConstraints": {
                  "left": 16,
                  "right": 16,
                  "top": 16,
                  "bottom": 0
                }
              },
              "elements": [
                {
                  "id": "0-0-0",
                  "parameterId": "card",
                  "type": "paymentSelector",
                  "options": {
                    "mobileDefaultConstraints": {
                      "left": 16,
                      "right": 16,
                      "top": 2,
                      "bottom": 2
                    },
                    "label": {
                      "ru-RU": "Выберите способ оплаты",
                      "kz-KZ": "Төлем әдісін таңдаңыз",
                      "en-US": "Choose payment method"
                    }
                  }
                }
              ]
            },
            {
              "id": "0-1",
              "type": "roundedContainer",
              "options": {
                "webAlignment": "Vertical",
                "mobileDefaultConstraints": {
                  "left": 16,
                  "right": 16,
                  "top": 16,
                  "bottom": 0
                },
                "mobileBackgroundColor": "FFFFFF"
              },
              "elements": [
                {
                  "id": "0-1-0",
                  "parameterId": "shymbulakPoolType",
                  "type": "selector",
                  "options": {
                    "showUnderline": true,
                    "mobileDefaultConstraints": {
                      "left": 16,
                      "right": 16,
                      "top": 2,
                      "bottom": 0
                    },
                    "onValueChangeActions": [
                      "cleanShymbulakDate",
                      "cleanSelectionDataId",
                      "cleanInvoices",
                      "cleanInvoiceId",
                      "cleanInvoiceItems",
                      "getDates"
                    ],
                    "description": {
                      "ru-RU": "Билет",
                      "kz-KZ": "Билет",
                      "en-US": "Ticket type"
                    },
                    "webPlaceholder": {
                      "ru-RU": "Билет",
                      "kz-KZ": "Билет",
                      "en-US": "Ticket type"
                    },
                    "selectionData": [
                      {
                        "id": "13",
                        "text": {
                          "ru-RU": "Медеу - Шымбулак - Медеу",
                          "kz-KZ": "Медеу - Шымбулак - Медеу",
                          "en-US": "Медеу - Шымбулак - Медеу"
                        }
                      },
                      {
                        "id": "19",
                        "text": {
                          "ru-RU": "Медеу - Талгарский перевал - Медеу",
                          "kz-KZ": "Медеу - Талгарский перевал - Медеу",
                          "en-US": "Медеу - Талгарский перевал - Медеу"
                        }
                      }
                    ]
                  }
                },
                {
                  "id": "0-1-1",
                  "parameterId": "shymbulakDate",
                  "type": "selector",
                  "options": {
                    "showUnderline": true,
                    "mobileDefaultConstraints": {
                      "left": 16,
                      "right": 16,
                      "top": 2,
                      "bottom": 0
                    },
                    "onValueChangeActions": [
                      "cleanInvoices",
                      "cleanInvoiceId",
                      "cleanInvoiceItems",
                      "secondSelectorRequest"
                    ],
                    "description": {
                      "ru-RU": "Дата",
                      "kz-KZ": "Бару күні",
                      "en-US": "Date"
                    },
                    "webPlaceholder": {
                      "ru-RU": "Дата",
                      "kz-KZ": "Бару күні",
                      "en-US": "Date"
                    },
                    "selectionData": null,
                    "selectionDataId": "dateSelection"
                  }
                },
                {
                  "id": "0-1-2",
                  "type": "invoiceBasket",
                  "parameterId": "invoices",
                  "options": {
                    "setInvoiceId": "invoiceId",
                    "setInvoiceItems": "invoiceItems",
                    "setAmountParam": "amount",
                    "mobileDefaultConstraints": {
                      "left": 16,
                      "right": 16,
                      "top": 0,
                      "bottom": 0
                    },
                    "description": {
                      "ru-RU": "Количество билетов",
                      "kz-KZ": "Билеттер саны",
                      "en-US": "Number of tickets"
                    }
                  }
                }
              ]
            },
            {
              "id": "0-2",
              "type": "roundedContainer",
              "options": {
                "webAlignment": "Vertical",
                "mobileDefaultConstraints": {
                  "left": 16,
                  "right": 16,
                  "top": 16,
                  "bottom": 0
                },
                "mobileBackgroundColor": "FFFFFF"
              },
              "elements": [
                {
                  "id": "0-2-0",
                  "parameterId": "amount",
                  "type": "inputField",
                  "options": {
                    "webAlignment": "Vertical",
                    "isEditable": false,
                    "mobileDefaultConstraints": {
                      "left": 16,
                      "right": 16,
                      "top": 2,
                      "bottom": 2
                    },
                    "description": {
                      "ru-RU": "Сумма к оплате",
                      "kz-KZ": "Төлем сомасы",
                      "en-US": "Amount to pay"
                    },
                    "webPlaceholder": {
                      "ru-RU": "200",
                      "kz-KZ": "200",
                      "en-US": "200"
                    },
                    "formatting": "priceAmount",
                    "keyboard": "decimal",
                    "onResignPreCheck": {
                      "parameterId": "amount",
                      "checkCondition": {
                        "range": {
                          "min": "0",
                          "max": "1000000000",
                          "dataType": "double"
                        }
                      },
                      "errorActions": []
                    }
                  }
                }
              ]
            },
            {
              "id": "0-3",
              "type": "flat",
              "options": {
                "webAlignment": "Vertical",
                "mobileDefaultConstraints": {
                  "left": 16,
                  "right": 16,
                  "top": 16,
                  "bottom": 0
                }
              },
              "elements": [
                {
                  "id": "0-3-1",
                  "parameterId": "commission",
                  "actionId": "commissionAlert",
                  "type": "commission",
                  "options": {
                    "calculateFromParamId": "amount",
                    "webTextAligment": "left",
                    "mobileTextAlignment": "center",
                    "mobileDefaultConstraints": {
                      "left": 0,
                      "right": 0,
                      "top": 0,
                      "bottom": 0
                    },
                    "description": {
                      "ru-RU": "Комиссия: {0} ₸",
                      "kz-KZ": "Комиссия: {0} ₸",
                      "en-US": "commission: {0} ₸"
                    },
                    "highLightedText": [
                      {
                        "ru-RU": "{0} ₸",
                        "kz-KZ": "{0} ₸",
                        "en-US": "{0} ₸"
                      }
                    ],
                    "dependencies": [
                      "commission"
                    ]
                  }
                },
                {
                  "id": "0-3-0",
                  "type": "label",
                  "options": {
                    "webTextAlignment": "left",
                    "mobileTextAlignment": "left",
                    "mobileDefaultConstraints": {
                      "left": 0,
                      "right": 0,
                      "top": 16,
                      "bottom": 0
                    },
                    "description": {
                      "ru-RU": "После оплаты в квитанции отобразится QR-код для сканирования у входа",
                      "kz-KZ": "Төлем жасалғаннан кейін QR коды кіреберісте сканерлеуге арналған түбіртекте көрсетіледі",
                      "en-US": "After payment, a QR code will be displayed in the receipt for scanning at the entrance"
                    },
                    "icon": "template_label_info",
                    "fontSize": 13
                  }
                }
              ]
            },
            {
              "id": "0-5",
              "type": "flat",
              "options": {
                "webAlignment": "Vertical",
                "mobileDefaultConstraints": {
                  "left": 0,
                  "right": 0,
                  "top": 16,
                  "bottom": 80
                }
              },
              "elements": [
                {
                  "id": "0-5-0",
                  "type": "submit",
                  "actionId": "showExecPage",
                  "parameterId": "overallAmount",
                  "options": {
                    "webTextAligment": "center",
                    "mobileDefaultConstraints": {
                      "left": 16,
                      "right": 16,
                      "top": 16,
                      "bottom": 0
                    },
                    "description": {
                      "ru-RU": "Проверить",
                      "kz-KZ": "Тексеру",
                      "en-US": "Check"
                    },
                    "dependencies": [
                      "overallAmount"
                    ],
                    "sumFromParams": [
                      "amount",
                      "commission"
                    ]
                  }
                }
              ]
            }
          ]
        }
      ]
    },
    {
      "id": "execPage",
      "type": "execPage",
      "options": {
        "actionId": "exec",
        "displayInfo": {
          "card": "card",
          "commission": "commission",
          "amount": "amount",
          "addedFields": [
            {
              "value": "{0}",
              "dependencies": [
                "shymbulakTicketTypeTitle"
              ],
              "name": {
                "ru-RU": "Направление",
                "kz-KZ": "Бағыт",
                "en-US": "Route"
              }
            }
          ]
        }
      },
      "containers": []
    }
  ],
  "parameters": [
    {
      "id": "contract",
      "dataType": "string"
    },
    {
      "id": "invoiceId",
      "dataType": "string"
    },
    {
      "id": "invoices",
      "dataType": "array"
    },
    {
      "id": "invoiceItems",
      "dataType": "array"
    },
    {
      "id": "dateSelection",
      "dataType": "array"
    },
    {
      "id": "shymbulakPoolType",
      "dataType": "string"
    },
    {
      "id": "shymbulakTicketType",
      "dataType": "string"
    },
    {
      "id": "shymbulakTicketTypeTitle",
      "dataType": "string"
    },
    {
      "id": "amount",
      "dataType": "double"
    },
    {
      "id": "commission",
      "dataType": "double"
    },
    {
      "id": "card",
      "dataType": "cardData"
    },
    {
      "id": "overallAmount",
      "dataType": "double"
    },
    {
      "id": "errorDesc",
      "dataType": "string"
    }
  ],
  "actions": [
    {
      "id": "cleanShymbulakPoolType",
      "type": "setParam",
      "options": {
        "dataType": "string",
        "value": null,
        "parameterId": "shymbulakPoolType"
      }
    },
    {
      "id": "cleanSelectionDataId",
      "type": "setParam",
      "options": {
        "dataType": "array",
        "value": null,
        "parameterId": "selectionDataId"
      }
    },
    {
      "id": "cleanShymbulakDate",
      "type": "setParam",
      "options": {
        "dataType": "string",
        "value": null,
        "parameterId": "shymbulakDate"
      }
    },
    {
      "id": "cleanInvoices",
      "type": "setParam",
      "options": {
        "dataType": "string",
        "value": null,
        "parameterId": "invoices"
      }
    },
    {
      "id": "cleanInvoiceId",
      "type": "setParam",
      "options": {
        "dataType": "string",
        "value": null,
        "parameterId": "invoiceId"
      }
    },
    {
      "id": "cleanInvoiceItems",
      "type": "setParam",
      "options": {
        "dataType": "string",
        "value": null,
        "parameterId": "invoiceItems"
      }
    },
    {
      "id": "hideAllErrors",
      "type": "hideAllErrors",
      "options": {}
    },
    {
      "id": "commissionAlert",
      "type": "alert",
      "options": {
        "text": {
          "ru-RU": "Комиссия Homebank 0 ₸ \nКомиссия агрегатора {0} ₸",
          "kz-KZ": "Homebank комиссиясы 0 ₸ \nАгрегатордың комиссиясы {0} ₸",
          "en-US": "Homebank Commission 0 ₸ \nAggregator commission {0} ₸"
        },
        "title": {
          "ru-RU": "Комиссия",
          "kz-KZ": "Комиссия",
          "en-US": "Commission"
        },
        "dependencies": [
          "commission"
        ]
      }
    },
    {
      "id": "showExecPage",
      "type": "checkRequest",
      "options": {
        "parameters": [
          {
            "id": "contract",
            "valueFromParam": "contract"
          },
          {
            "id": "shymbulakPoolType",
            "valueFromParam": "shymbulakPoolType"
          },
          {
            "id": "shymbulakDate",
            "valueFromParam": "shymbulakDate"
          },
          {
            "id": "shymbulakTicketType",
            "valueFromParam": "shymbulakTicketType"
          },
          {
            "id": "shymbulakTicketTypeTitle",
            "valueFromParam": "shymbulakTicketTypeTitle"
          }
        ],
        "dependencies": [],
        "preChecks": [
          {
            "parameterId": "card",
            "errorActions": [
              {
                "id": "pc-2.0",
                "type": "setParam",
                "options": {
                  "dataType": "double",
                  "value": null,
                  "parameterId": "overallAmount"
                }
              },
              {
                "id": "pc-2.1",
                "type": "highlightElem",
                "options": {
                  "targetElem": "0-0-0",
                  "highlightParent": true
                }
              },
              {
                "id": "pc-2.2",
                "type": "becomeFirstResponder",
                "options": {
                  "targetElem": "0-0-0"
                }
              }
            ]
          },
          {
            "parameterId": "shymbulakPoolType",
            "errorActions": [
              {
                "id": "pc-0.01",
                "type": "setParam",
                "options": {
                  "dataType": "double",
                  "value": null,
                  "parameterId": "overallAmount"
                }
              },
              {
                "id": "pc-0.11",
                "type": "highlightElem",
                "options": {
                  "targetElem": "0-1-0",
                  "text": {
                    "ru-RU": "Выберите тип",
                    "kz-KZ": "Түрін таңдаңыз",
                    "en-US": "Select type"
                  }
                }
              },
              {
                "id": "pc-0.21",
                "type": "becomeFirstResponder",
                "options": {
                  "targetElem": "0-1-0"
                }
              },
              {
                "id": "pc-0-31",
                "type": "taptic",
                "options": {
                  "tapType": "warning"
                }
              }
            ]
          },
          {
            "parameterId": "shymbulakDate",
            "errorActions": [
              {
                "id": "pc-0.01",
                "type": "setParam",
                "options": {
                  "dataType": "double",
                  "value": null,
                  "parameterId": "overallAmount"
                }
              },
              {
                "id": "pc-0.11",
                "type": "highlightElem",
                "options": {
                  "targetElem": "0-1-1",
                  "text": {
                    "ru-RU": "Выберите дату",
                    "kz-KZ": "Түрін таңдаңыз",
                    "en-US": "Select date"
                  }
                }
              },
              {
                "id": "pc-0.21",
                "type": "becomeFirstResponder",
                "options": {
                  "targetElem": "0-1-1"
                }
              },
              {
                "id": "pc-0-31",
                "type": "taptic",
                "options": {
                  "tapType": "warning"
                }
              }
            ]
          },
          {
            "parameterId": "amount",
            "errorActions": [
              {
                "id": "pc-0.01",
                "type": "setParam",
                "options": {
                  "dataType": "double",
                  "value": null,
                  "parameterId": "overallAmount"
                }
              },
              {
                "id": "pc-0.11",
                "type": "highlightElem",
                "options": {
                  "targetElem": "0-1",
                  "text": {
                    "ru-RU": "Выберите билеты",
                    "kz-KZ": "Билеттердi алыңыз",
                    "en-US": "Choose a Ticket"
                  }
                }
              },
              {
                "id": "pc-0.21",
                "type": "becomeFirstResponder",
                "options": {
                  "targetElem": "0-1-2"
                }
              },
              {
                "id": "pc-0-31",
                "type": "taptic",
                "options": {
                  "tapType": "warning"
                }
              }
            ]
          }
        ],
        "errorResponseActions": [
          {
            "code": "other",
            "responseActions": [
              {
                "id": "era-1.0",
                "type": "setParam",
                "options": {
                  "dataType": "double",
                  "value": null,
                  "parameterId": "overallAmount"
                }
              },
              {
                "id": "era-1.1",
                "type": "setParam",
                "options": {
                  "dataType": "string",
                  "valueFrom": [
                    {
                      "id": "resultDescription",
                      "dataType": "string"
                    }
                  ],
                  "parameterId": "errorDesc"
                }
              },
              {
                "id": "era-1.2",
                "type": "alert",
                "options": {
                  "text": {
                    "ru-RU": "{0}",
                    "kz-KZ": "{0}",
                    "en-US": "{0}"
                  },
                  "title": {
                    "ru-RU": "Ошибка",
                    "kz-KZ": "Қателік",
                    "en-US": "Error"
                  },
                  "dependencies": [
                    "errorDesc"
                  ]
                }
              },
              {
                "id": "era-1.3",
                "type": "taptic",
                "options": {
                  "tapType": "warning"
                }
              }
            ]
          }
        ],
        "successResponseActions": [
          {
            "id": "sra-0.0",
            "type": "setParam",
            "options": {
              "dataType": "double",
              "value": null,
              "parameterId": "overallAmount"
            }
          },
          {
            "id": "sra-0.2",
            "type": "showPage",
            "options": {
              "pageId": "execPage"
            }
          }
        ]
      }
    },
    {
      "id": "getDates",
      "type": "selectorRequest",
      "options": {
        "parameters": [
          {
            "id": "contract",
            "value": "0"
          },
          {
            "id": "shymbulakPoolType",
            "valueFromParam": "shymbulakPoolType"
          },
          {
            "id": "shymbulakDate",
            "value": "0"
          }
        ],
        "dependencies": [],
        "preChecks": [
        ],
        "errorResponseActions": [
          {
            "code": "other",
            "responseActions": [
              {
                "id": "era-1.0",
                "type": "setParam",
                "options": {
                  "dataType": "double",
                  "value": null,
                  "parameterId": "overallAmount"
                }
              },
              {
                "id": "era-1.1",
                "type": "setParam",
                "options": {
                  "dataType": "string",
                  "valueFrom": [
                    {
                      "id": "resultDescription",
                      "dataType": "string"
                    }
                  ],
                  "parameterId": "errorDesc"
                }
              },
              {
                "id": "era-1.2",
                "type": "alert",
                "options": {
                  "text": {
                    "ru-RU": "{0}",
                    "kz-KZ": "{0}",
                    "en-US": "{0}"
                  },
                  "title": {
                    "ru-RU": "Сервис временно недоступен",
                    "kz-KZ": "Сервис временно недоступен",
                    "en-US": "Сервис временно недоступен"
                  },
                  "dependencies": [
                    "errorDesc"
                  ]
                }
              },
              {
                "id": "era-1.3",
                "type": "taptic",
                "options": {
                  "tapType": "warning"
                }
              }
            ]
          }
        ],
        "successResponseActions": [
          {
            "id": "sra-0.0",
            "type": "setParam",
            "options": {
              "dataType": "double",
              "value": null,
              "parameterId": "overallAmount"
            }
          },
          {
            "id": "set array from selector #1",
            "type": "setParam",
            "options": {
              "dataType": "array",
              "valueFrom": [
                {
                  "id": "selector",
                  "dataType": "array"
                }
              ],
              "parameterId": "dateSelection"
            }
          }
        ]
      }
    },
    {
      "id": "secondSelectorRequest",
      "type": "selectorRequest",
      "options": {
        "parameters": [
          {
            "id": "contract",
            "value": "0"
          },
          {
            "id": "shymbulakPoolType",
            "valueFromParam": "shymbulakPoolType"
          },
          {
            "id": "shymbulakDate",
            "valueFromParam": "shymbulakDate"
          }
        ],
        "dependencies": [],
        "preChecks": [
        ],
        "errorResponseActions": [
          {
            "code": "other",
            "responseActions": [
              {
                "id": "era-1.0",
                "type": "setParam",
                "options": {
                  "dataType": "double",
                  "value": null,
                  "parameterId": "overallAmount"
                }
              },
              {
                "id": "era-1.1",
                "type": "setParam",
                "options": {
                  "dataType": "string",
                  "valueFrom": [
                    {
                      "id": "resultDescription",
                      "dataType": "string"
                    }
                  ],
                  "parameterId": "errorDesc"
                }
              },
              {
                "id": "era-1.2",
                "type": "alert",
                "options": {
                  "text": {
                    "ru-RU": "{0}",
                    "kz-KZ": "{0}",
                    "en-US": "{0}"
                  },
                  "title": {
                    "ru-RU": "Сервис временно недоступен",
                    "kz-KZ": "Сервис временно недоступен",
                    "en-US": "Сервис временно недоступен"
                  },
                  "dependencies": [
                    "errorDesc"
                  ]
                }
              },
              {
                "id": "era-1.3",
                "type": "taptic",
                "options": {
                  "tapType": "warning"
                }
              }
            ]
          }
        ],
        "successResponseActions": [
          {
            "id": "sra-0.0",
            "type": "setParam",
            "options": {
              "dataType": "double",
              "value": null,
              "parameterId": "overallAmount"
            }
          },
          {
            "id": "sra-selrequest ticket type",
            "type": "setParam",
            "options": {
              "dataType": "string",
              "valueFrom": [
                {
                  "id": "selector",
                  "dataType": "array"
                },
                {
                  "id": "0",
                  "dataType": "dict"
                },
                {
                  "id": "selectorId",
                  "dataType": "string"
                }
              ],
              "parameterId": "shymbulakTicketType"
            }
          },
          {
            "id": "sra-selrequest ticket title",
            "type": "setParam",
            "options": {
              "dataType": "string",
              "valueFrom": [
                {
                  "id": "selector",
                  "dataType": "array"
                },
                {
                  "id": "0",
                  "dataType": "dict"
                },
                {
                  "id": "selectorTitle",
                  "dataType": "string"
                }
              ],
              "parameterId": "shymbulakTicketTypeTitle"
            }
          }
        ]
      }
    },
    {
      "id": "checkRequest",
      "type": "checkRequest",
      "options": {
        "parameters": [
          {
            "id": "contract",
            "valueFromParam": "contract"
          },
          {
            "id": "shymbulakPoolType",
            "valueFromParam": "shymbulakPoolType"
          },
          {
            "id": "shymbulakDate",
            "valueFromParam": "shymbulakDate"
          },
          {
            "id": "shymbulakTicketType",
            "valueFromParam": "shymbulakTicketType"
          },
          {
            "id": "shymbulakTicketTypeTitle",
            "valueFromParam": "shymbulakTicketTypeTitle"
          }
        ],
        "dependencies": [],
        "preChecks": [
          {
            "parameterId": "card",
            "errorActions": [
              {
                "id": "pc-2.0",
                "type": "setParam",
                "options": {
                  "dataType": "double",
                  "value": null,
                  "parameterId": "overallAmount"
                }
              },
              {
                "id": "pc-2.1",
                "type": "highlightElem",
                "options": {
                  "targetElem": "0-0-0",
                  "highlightParent": true
                }
              },
              {
                "id": "pc-2.2",
                "type": "becomeFirstResponder",
                "options": {
                  "targetElem": "0-0-0"
                }
              }
            ]
          },
          {
            "parameterId": "shymbulakPoolType",
            "errorActions": [
              {
                "id": "pc-0.01",
                "type": "setParam",
                "options": {
                  "dataType": "double",
                  "value": null,
                  "parameterId": "overallAmount"
                }
              },
              {
                "id": "pc-0.11",
                "type": "highlightElem",
                "options": {
                  "targetElem": "0-1-0",
                  "text": {
                    "ru-RU": "Выберите тип",
                    "kz-KZ": "Түрін таңдаңыз",
                    "en-US": "Select type"
                  }
                }
              },
              {
                "id": "pc-0.21",
                "type": "becomeFirstResponder",
                "options": {
                  "targetElem": "0-1-0"
                }
              },
              {
                "id": "pc-0-31",
                "type": "taptic",
                "options": {
                  "tapType": "warning"
                }
              }
            ]
          },
          {
            "parameterId": "shymbulakDate",
            "errorActions": [
              {
                "id": "pc-0.01",
                "type": "setParam",
                "options": {
                  "dataType": "double",
                  "value": null,
                  "parameterId": "overallAmount"
                }
              },
              {
                "id": "pc-0.11",
                "type": "highlightElem",
                "options": {
                  "targetElem": "0-1-1",
                  "text": {
                    "ru-RU": "Выберите дату",
                    "kz-KZ": "Түрін таңдаңыз",
                    "en-US": "Select date"
                  }
                }
              },
              {
                "id": "pc-0.21",
                "type": "becomeFirstResponder",
                "options": {
                  "targetElem": "0-1-1"
                }
              },
              {
                "id": "pc-0-31",
                "type": "taptic",
                "options": {
                  "tapType": "warning"
                }
              }
            ]
          }
        ],
        "errorResponseActions": [
          {
            "code": "other",
            "responseActions": [
              {
                "id": "era-1.0",
                "type": "setParam",
                "options": {
                  "dataType": "double",
                  "value": null,
                  "parameterId": "overallAmount"
                }
              },
              {
                "id": "era-1.1",
                "type": "setParam",
                "options": {
                  "dataType": "string",
                  "valueFrom": [
                    {
                      "id": "resultDescription",
                      "dataType": "string"
                    }
                  ],
                  "parameterId": "errorDesc"
                }
              },
              {
                "id": "era-1.2",
                "type": "alert",
                "options": {
                  "text": {
                    "ru-RU": "{0}",
                    "kz-KZ": "{0}",
                    "en-US": "{0}"
                  },
                  "title": {
                    "ru-RU": "Ошибка",
                    "kz-KZ": "Қателік",
                    "en-US": "Error"
                  },
                  "dependencies": [
                    "errorDesc"
                  ]
                }
              },
              {
                "id": "era-1.3",
                "type": "taptic",
                "options": {
                  "tapType": "warning"
                }
              }
            ]
          }
        ],
        "successResponseActions": [
          {
            "id": "sra-0.0",
            "type": "setParam",
            "options": {
              "dataType": "double",
              "value": null,
              "parameterId": "overallAmount"
            }
          },
          {
            "id": "sra-0.1",
            "type": "setParam",
            "options": {
              "dataType": "string",
              "valueFrom": [
                {
                  "id": "invoices",
                  "dataType": "array"
                },
                {
                  "id": "0",
                  "dataType": "dict"
                },
                {
                  "id": "id",
                  "dataType": "string"
                }
              ],
              "parameterId": "invoiceId"
            }
          },
          {
            "id": "sra-0.3",
            "type": "setParam",
            "options": {
              "dataType": "array",
              "valueFrom": [
                {
                  "id": "invoices",
                  "dataType": "array"
                }
              ],
              "parameterId": "invoices"
            }
          },
          {
            "id": "sra-0.31",
            "type": "setParam",
            "options": {
              "dataType": "array",
              "valueFrom": [
                {
                  "id": "invoices",
                  "dataType": "array"
                },
                {
                  "id": "0",
                  "dataType": "dict"
                },
                {
                  "id": "items",
                  "dataType": "array"
                }
              ],
              "parameterId": "invoiceItems"
            }
          }
        ]
      }
    },
    {
      "id": "exec",
      "type": "execRequest",
      "options": {
        "chosenCardParam": "card",
        "parameters": [
          {
            "id": "amount",
            "valueFromParam": "amount"
          }
        ],
        "errorResponseActions": [
          {
            "code": "other",
            "responseActions": [
              {
                "id": "era-2.0",
                "type": "setParam",
                "options": {
                  "dataType": "string",
                  "valueFrom": [
                    {
                      "id": "resultDescription",
                      "dataType": "string"
                    }
                  ],
                  "parameterId": "errorDesc"
                }
              },
              {
                "id": "era-2.1",
                "type": "alert",
                "options": {
                  "text": {
                    "ru-RU": "{0}",
                    "kz-KZ": "{0}",
                    "en-US": "{0}"
                  },
                  "title": {
                    "ru-RU": "Ошибка",
                    "kz-KZ": "Қателік",
                    "en-US": "Error"
                  },
                  "dependencies": [
                    "errorDesc"
                  ]
                }
              },
              {
                "id": "era-2.2",
                "type": "taptic",
                "options": {
                  "tapType": "warning"
                }
              }
            ]
          }
        ],
        "successResponseActions": [
          {
            "id": "sra-1.0",
            "type": "finishTemplate",
            "options": {
              "title": {
                "ru-RU": "Спасибо",
                "kz-KZ": "Рақмет",
                "en-US": "Thanks"
              },
              "text": {
                "ru-RU": "Ваш платеж успешно отправлен в обработку!",
                "kz-KZ": "Сіздің төлеміңіз сәтті өңдеуге жіберілді!",
                "en-US": "Your payment has been successfully sent for processing!"
              }
            }
          }
        ]
      }
    }
  ]
}